%YAML 1.1
%TAG !u! tag:unity3d.com,2011:
--- !u!1045 &1
EditorBuildSettings:
  m_ObjectHideFlags: 0
  serializedVersion: 2
  m_Scenes:
  - enabled: 1
    path: Assets/Scenes/mainMenu.unity
    guid: d0600deb8ec3b404798a1662023b5c46
  - enabled: 1
    path: Assets/Scenes/CriasInvaders.unity
    guid: 2cda990e2423bbf4892e6590ba056729
  - enabled: 1
    path: Assets/Scenes/GameOver.unity
    guid: d0502e5701c378a4ea15f7d89dc389ab
  m_configObjects: {}
