%YAML 1.1
%TAG !u! tag:unity3d.com,2011:
--- !u!1001 &7736245207962089148
PrefabInstance:
  m_ObjectHideFlags: 0
  serializedVersion: 2
  m_Modification:
    serializedVersion: 3
    m_TransformParent: {fileID: 0}
    m_Modifications:
    - target: {fileID: 1788622360293551478, guid: 92725eb3a0283d641835e37afa65bda1, type: 3}
      propertyPath: m_Size.x
      value: 1
      objectReference: {fileID: 0}
    - target: {fileID: 1788622360293551478, guid: 92725eb3a0283d641835e37afa65bda1, type: 3}
      propertyPath: m_SpriteTilingProperty.newSize.x
      value: 1
      objectReference: {fileID: 0}
    - target: {fileID: 1788622360293551478, guid: 92725eb3a0283d641835e37afa65bda1, type: 3}
      propertyPath: m_SpriteTilingProperty.oldSize.x
      value: 1
      objectReference: {fileID: 0}
    - target: {fileID: 1788622360293551480, guid: 92725eb3a0283d641835e37afa65bda1, type: 3}
      propertyPath: m_RootOrder
      value: 0
      objectReference: {fileID: 0}
    - target: {fileID: 1788622360293551480, guid: 92725eb3a0283d641835e37afa65bda1, type: 3}
      propertyPath: m_LocalPosition.x
      value: 0
      objectReference: {fileID: 0}
    - target: {fileID: 1788622360293551480, guid: 92725eb3a0283d641835e37afa65bda1, type: 3}
      propertyPath: m_LocalPosition.y
      value: 0
      objectReference: {fileID: 0}
    - target: {fileID: 1788622360293551480, guid: 92725eb3a0283d641835e37afa65bda1, type: 3}
      propertyPath: m_LocalPosition.z
      value: 0
      objectReference: {fileID: 0}
    - target: {fileID: 1788622360293551480, guid: 92725eb3a0283d641835e37afa65bda1, type: 3}
      propertyPath: m_LocalRotation.w
      value: 1
      objectReference: {fileID: 0}
    - target: {fileID: 1788622360293551480, guid: 92725eb3a0283d641835e37afa65bda1, type: 3}
      propertyPath: m_LocalRotation.x
      value: 0
      objectReference: {fileID: 0}
    - target: {fileID: 1788622360293551480, guid: 92725eb3a0283d641835e37afa65bda1, type: 3}
      propertyPath: m_LocalRotation.y
      value: 0
      objectReference: {fileID: 0}
    - target: {fileID: 1788622360293551480, guid: 92725eb3a0283d641835e37afa65bda1, type: 3}
      propertyPath: m_LocalRotation.z
      value: 0
      objectReference: {fileID: 0}
    - target: {fileID: 1788622360293551480, guid: 92725eb3a0283d641835e37afa65bda1, type: 3}
      propertyPath: m_LocalEulerAnglesHint.x
      value: 0
      objectReference: {fileID: 0}
    - target: {fileID: 1788622360293551480, guid: 92725eb3a0283d641835e37afa65bda1, type: 3}
      propertyPath: m_LocalEulerAnglesHint.y
      value: 0
      objectReference: {fileID: 0}
    - target: {fileID: 1788622360293551480, guid: 92725eb3a0283d641835e37afa65bda1, type: 3}
      propertyPath: m_LocalEulerAnglesHint.z
      value: 0
      objectReference: {fileID: 0}
    - target: {fileID: 1788622360293551481, guid: 92725eb3a0283d641835e37afa65bda1, type: 3}
      propertyPath: m_Size.x
      value: 1
      objectReference: {fileID: 0}
    - target: {fileID: 1788622360293551481, guid: 92725eb3a0283d641835e37afa65bda1, type: 3}
      propertyPath: m_Sprite
      value: 
      objectReference: {fileID: 21300000, guid: b5f20663b636d4b4eb010e7fb8012499, type: 3}
    - target: {fileID: 1788622360293551481, guid: 92725eb3a0283d641835e37afa65bda1, type: 3}
      propertyPath: m_WasSpriteAssigned
      value: 0
      objectReference: {fileID: 0}
    - target: {fileID: 1788622360293551482, guid: 92725eb3a0283d641835e37afa65bda1, type: 3}
      propertyPath: m_Name
      value: Invader_01
      objectReference: {fileID: 0}
    - target: {fileID: 8540571529431895508, guid: 92725eb3a0283d641835e37afa65bda1, type: 3}
      propertyPath: score
      value: 30
      objectReference: {fileID: 0}
    - target: {fileID: 8540571529431895508, guid: 92725eb3a0283d641835e37afa65bda1, type: 3}
      propertyPath: sprite1
      value: 
      objectReference: {fileID: 21300000, guid: b5f20663b636d4b4eb010e7fb8012499, type: 3}
    - target: {fileID: 8540571529431895508, guid: 92725eb3a0283d641835e37afa65bda1, type: 3}
      propertyPath: sprite2
      value: 
      objectReference: {fileID: 21300000, guid: 695deb1fbb284dd46be3ecd6ad6b2c49, type: 3}
    - target: {fileID: 8540571529431895508, guid: 92725eb3a0283d641835e37afa65bda1, type: 3}
      propertyPath: animationSprites.Array.size
      value: 2
      objectReference: {fileID: 0}
    - target: {fileID: 8540571529431895508, guid: 92725eb3a0283d641835e37afa65bda1, type: 3}
      propertyPath: animationSprites.Array.data[0]
      value: 
      objectReference: {fileID: 21300000, guid: 2b27ac34b41e0914f915199b064c883c, type: 3}
    - target: {fileID: 8540571529431895508, guid: 92725eb3a0283d641835e37afa65bda1, type: 3}
      propertyPath: animationSprites.Array.data[1]
      value: 
      objectReference: {fileID: 21300000, guid: 97fa4c53ca8734c40af73e79bf0f35d9, type: 3}
    m_RemovedComponents: []
    m_RemovedGameObjects: []
    m_AddedGameObjects: []
    m_AddedComponents: []
  m_SourcePrefab: {fileID: 100100000, guid: 92725eb3a0283d641835e37afa65bda1, type: 3}
